%YAML 1.1
%TAG !u! tag:unity3d.com,2011:
--- !u!114 &11400000
MonoBehaviour:
  m_ObjectHideFlags: 0
  m_PrefabParentObject: {fileID: 0}
  m_PrefabInternal: {fileID: 0}
  m_GameObject: {fileID: 0}
  m_Enabled: 1
  m_EditorHideFlags: 0
  m_Script: {fileID: 11500000, guid: eb7f37010a0452644bc8a82539af1c8a, type: 3}
  m_Name: BuildingFactorySettings
  m_EditorClassIdentifier: 
  DefaultBuilding:
    showContent: 0
    Type: 0
    Material: {fileID: 2100000, guid: 8648b1c678a503a499f2991a899f7cb7, type: 2}
    MinimumBuildingHeight: 2
    MaximumBuildingHeight: 5
    IsVolumetric: 1
  SettingsBuildings: []
